{
	"port-forward": {
		"lan-interface": [
			"wg0",
			"eth1",
			"eth1.10",
			"eth1.100",
			"eth1.200",
			"eth1.210",
			"eth1.220",
			"eth1.300",
			"eth1.400",
			"eth1.410",
			"eth1.500"
		]
	},
	"service": {
                "dns": {
                        "dynamic": {
                                "interface": {
                                        "eth2.12": {
                                                "service": {
                                                        "noip": {
                                                                "host-name": [
                                                                        "shackspace.ddns.net"
                                                                ],
                                                                "login": "hase.christian92@gmail.com",
                                                                "password": "73#DNbd2E5WyfzAy4A!FspTN56pn9K"
                                                        }
                                                },
                                                "web": "dyndns",
                                                "web-skip": "Current IP Address: "
                                        }
                                }
                        }

                }
	},
	"interfaces": {
	        "wireguard": {
	                "wg0": {
				"description": "VPN - RZ Admins/Operators/etc.",
	                        "listen-port": "51830",
	                        "mtu": "1500",
	                        "private-key": "/config/auth/wg_ipsec_vorstand_rz-admins.key",
	                        "route-allowed-ips": "false",
	                        "address": [
	                                "192.168.66.1/24"
	                        ],
				"firewall": {
                    			"in": {
			                        "name": "LAN_IN"
					},
					"local": {
						"name": "LAN_LOCAL"
					},
					"out": {
						"name": "LAN_OUT"
					}
				},
	                        "peer": [{
	                                "Kh+ZBm2qiTPrJ1x+GNzTxTYMUOzLBlxm2dc7tatzoXw=": {
	                                        "allowed-ips": [
	                                                "192.168.66.10/32"
	                                        ],
	                                        "description": "hase",
	                                        "persistent-keepalive": "25"
	                                },
	                                "hD7VJShAsRsumRX0pn3IjIzrWAsKsozDfC1r5ZL3NUc=": {
	                                        "allowed-ips": [
	                                                "192.168.66.11/32"
	                                        ],
	                                        "description": "exec",
	                                        "persistent-keepalive": "25"
	                                },
	                                "5iVLps+mpQm80deZmAol7xw6ny3Og3y/7HDjkaRCpkE=": {
	                                        "allowed-ips": [
	                                                "192.168.66.12/32"
	                                        ],
	                                        "description": "karlo",
	                                        "persistent-keepalive": "25"
	                                },
	                                "MXHtkbZNnP+qt6q9iDt8FeeHuoZOgPrX2s32h3UBUlo=": {
	                                        "allowed-ips": [
	                                                "192.168.66.13/32"
	                                        ],
	                                        "description": "xq",
	                                        "persistent-keepalive": "25"
	                                },
	                                "fe5smvKVy5GAn7EV4w4tav6mqIAKhGWQotm7dRuRt1g=": {
	                                        "allowed-ips": [
	                                                "192.168.66.14/32"
	                                        ],
	                                        "description": "makefu",
	                                        "persistent-keepalive": "25"
	                                },
	                                "64nGlkbYu3l1sa2H00cCoGAwzkdNthY1RecN0sty5AE=": {
	                                        "allowed-ips": [
	                                                "192.168.66.15/32"
	                                        ],
	                                        "description": "mikey",
	                                        "persistent-keepalive": "25"
	                                },
	                                "vIQB7SZbVpr8cfeSO3WsFqV6qqOVCwCIrpwDtzUdPDQ=": {
	                                        "allowed-ips": [
	                                                "192.168.66.16/32"
	                                        ],
	                                        "description": "raute",
	                                        "persistent-keepalive": "25"
	                                },
					"Rv81HQxd4obdlNWzdFKX7gRsF+DCc9j4ezuVVK/8An8=": {
	                                        "allowed-ips": [
	                                                "192.168.66.17/32"
	                                        ],
	                                        "description": "rudi",
	                                        "persistent-keepalive": "25"
	                                },
					"/lqCCXGW6utjaozVBfGFhTOqHKIe39GSZ0dBWZj+bEc=": {
	                                        "allowed-ips": [
	                                                "192.168.66.18/32"
	                                        ],
	                                        "description": "are",
	                                        "persistent-keepalive": "25"
	                                },
					"Kr33vS0rp31H9mRvWmwDuD94CCirV8rYmp5S43x4KjY=": {
	                                        "allowed-ips": [
	                                                "192.168.66.19/32"
	                                        ],
	                                        "description": "kr4bat",
	                                        "persistent-keepalive": "25"
	                                }
	                            }
				]
	                }
	        }
	}
}
